{
	"info": {
		"_postman_id": "40e28379-90ad-4712-a486-03665021a1c1",
		"name": "weatherAPI",
		"schema": "https://schema.getpostman.com/json/collection/v2.1.0/collection.json"
	},
	"item": [
		{
			"name": "Current",
			"request": {
				"auth": {
					"type": "apikey",
					"apikey": [
						{
							"key": "value",
							"value": "",
							"type": "string"
						},
						{
							"key": "key",
							"value": "",
							"type": "string"
						},
						{
							"key": "in",
							"value": "header",
							"type": "string"
						}
					]
				},
				"method": "GET",
				"header": [
					{
						"key": "",
						"value": "",
						"type": "text",
						"disabled": true
					}
				],
				"url": {
					"raw": "http://api.weatherbit.io/v2.0/current?&lat=40.730610&lon=-73.935242&key=b146b6f99e8941079f43c6e437903e9a",
					"protocol": "http",
					"host": [
						"api",
						"weatherbit",
						"io"
					],
					"path": [
						"v2.0",
						"current"
					],
					"query": [
						{
							"key": null,
							"value": null
						},
						{
							"key": "lat",
							"value": "40.730610"
						},
						{
							"key": "lon",
							"value": "-73.935242"
						},
						{
							"key": "key",
							"value": "b146b6f99e8941079f43c6e437903e9a"
						}
					]
				}
			},
			"response": []
		},
		{
			"name": "forecast",
			"request": {
				"auth": {
					"type": "apikey",
					"apikey": [
						{
							"key": "value",
							"value": "",
							"type": "string"
						},
						{
							"key": "key",
							"value": "",
							"type": "string"
						},
						{
							"key": "in",
							"value": "header",
							"type": "string"
						}
					]
				},
				"method": "GET",
				"header": [],
				"url": {
					"raw": "http://api.weatherbit.io/v2.0/forecast/3hourly?postal_code=10001&key=b146b6f99e8941079f43c6e437903e9a",
					"protocol": "http",
					"host": [
						"api",
						"weatherbit",
						"io"
					],
					"path": [
						"v2.0",
						"forecast",
						"3hourly"
					],
					"query": [
						{
							"key": "postal_code",
							"value": "10001"
						},
						{
							"key": "key",
							"value": "b146b6f99e8941079f43c6e437903e9a"
						}
					]
				}
			},
			"response": []
		}
	]
}